%YAML 1.1
%TAG !u! tag:unity3d.com,2011:
--- !u!114 &11400000
MonoBehaviour:
  m_ObjectHideFlags: 0
  m_CorrespondingSourceObject: {fileID: 0}
  m_PrefabInstance: {fileID: 0}
  m_PrefabAsset: {fileID: 0}
  m_GameObject: {fileID: 0}
  m_Enabled: 1
  m_EditorHideFlags: 0
  m_Script: {fileID: 11500000, guid: 84a92b25f83d49b9bc132d206b370281, type: 3}
  m_Name: Keys
  m_EditorClassIdentifier: 
  hashCode: 2736804
  material: {fileID: 1252056285881531363}
  materialHashCode: 0
  m_Version: 1.1.0
  spriteSheet: {fileID: 2800000, guid: b4b7656a1d31ab744a16d3135816a253, type: 3}
  m_SpriteCharacterTable:
  - m_ElementType: 2
    m_Unicode: 0
    m_GlyphIndex: 0
    m_Scale: 1
    m_Name: wasdkl_0
    m_HashCode: -527725847
  - m_ElementType: 2
    m_Unicode: 0
    m_GlyphIndex: 1
    m_Scale: 1
    m_Name: wasdkl_1
    m_HashCode: -527725848
  - m_ElementType: 2
    m_Unicode: 0
    m_GlyphIndex: 2
    m_Scale: 1
    m_Name: wasdkl_2
    m_HashCode: -527725845
  - m_ElementType: 2
    m_Unicode: 0
    m_GlyphIndex: 3
    m_Scale: 1
    m_Name: wasdkl_3
    m_HashCode: -527725846
  - m_ElementType: 2
    m_Unicode: 0
    m_GlyphIndex: 4
    m_Scale: 1
    m_Name: wasdkl_4
    m_HashCode: -527725843
  - m_ElementType: 2
    m_Unicode: 0
    m_GlyphIndex: 5
    m_Scale: 1
    m_Name: wasdkl_5
    m_HashCode: -527725844
  - m_ElementType: 2
    m_Unicode: 0
    m_GlyphIndex: 6
    m_Scale: 1
    m_Name: wasdkl_6
    m_HashCode: -527725841
  - m_ElementType: 2
    m_Unicode: 0
    m_GlyphIndex: 7
    m_Scale: 1
    m_Name: wasdkl_7
    m_HashCode: -527725842
  - m_ElementType: 2
    m_Unicode: 0
    m_GlyphIndex: 8
    m_Scale: 1
    m_Name: wasdkl_8
    m_HashCode: -527725855
  - m_ElementType: 2
    m_Unicode: 0
    m_GlyphIndex: 9
    m_Scale: 1
    m_Name: wasdkl_9
    m_HashCode: -527725856
  - m_ElementType: 2
    m_Unicode: 0
    m_GlyphIndex: 10
    m_Scale: 1
    m_Name: wasdkl_10
    m_HashCode: -235083816
  - m_ElementType: 2
    m_Unicode: 0
    m_GlyphIndex: 11
    m_Scale: 1
    m_Name: wasdkl_11
    m_HashCode: -235083815
  m_SpriteGlyphTable:
  - m_Index: 0
    m_Metrics:
      m_Width: 32
      m_Height: 27
      m_HorizontalBearingX: -16
      m_HorizontalBearingY: 13.5
      m_HorizontalAdvance: 32
    m_GlyphRect:
      m_X: 5
      m_Y: 0
      m_Width: 32
      m_Height: 27
    m_Scale: 1
    m_AtlasIndex: 0
    sprite: {fileID: -5433604898597802289, guid: b4b7656a1d31ab744a16d3135816a253,
      type: 3}
  - m_Index: 1
    m_Metrics:
      m_Width: 32
      m_Height: 27
      m_HorizontalBearingX: -16
      m_HorizontalBearingY: 13.5
      m_HorizontalAdvance: 32
    m_GlyphRect:
      m_X: 37
      m_Y: 0
      m_Width: 32
      m_Height: 27
    m_Scale: 1
    m_AtlasIndex: 0
    sprite: {fileID: 892509762387004745, guid: b4b7656a1d31ab744a16d3135816a253, type: 3}
  - m_Index: 2
    m_Metrics:
      m_Width: 32
      m_Height: 27
      m_HorizontalBearingX: -16
      m_HorizontalBearingY: 13.5
      m_HorizontalAdvance: 32
    m_GlyphRect:
      m_X: 69
      m_Y: 0
      m_Width: 32
      m_Height: 27
    m_Scale: 1
    m_AtlasIndex: 0
    sprite: {fileID: 327124898931775769, guid: b4b7656a1d31ab744a16d3135816a253, type: 3}
  - m_Index: 3
    m_Metrics:
      m_Width: 32
      m_Height: 27
      m_HorizontalBearingX: -16
      m_HorizontalBearingY: 13.5
      m_HorizontalAdvance: 32
    m_GlyphRect:
      m_X: 101
      m_Y: 0
      m_Width: 32
      m_Height: 27
    m_Scale: 1
    m_AtlasIndex: 0
    sprite: {fileID: 6754562689605833528, guid: b4b7656a1d31ab744a16d3135816a253,
      type: 3}
  - m_Index: 4
    m_Metrics:
      m_Width: 32
      m_Height: 27
      m_HorizontalBearingX: -16
      m_HorizontalBearingY: 13.5
      m_HorizontalAdvance: 32
    m_GlyphRect:
      m_X: 133
      m_Y: 0
      m_Width: 32
      m_Height: 27
    m_Scale: 1
    m_AtlasIndex: 0
    sprite: {fileID: 5824988717628061155, guid: b4b7656a1d31ab744a16d3135816a253,
      type: 3}
  - m_Index: 5
    m_Metrics:
      m_Width: 32
      m_Height: 27
      m_HorizontalBearingX: -16
      m_HorizontalBearingY: 13.5
      m_HorizontalAdvance: 32
    m_GlyphRect:
      m_X: 165
      m_Y: 0
      m_Width: 32
      m_Height: 27
    m_Scale: 1
    m_AtlasIndex: 0
    sprite: {fileID: -6886318544504771766, guid: b4b7656a1d31ab744a16d3135816a253,
      type: 3}
  - m_Index: 6
    m_Metrics:
      m_Width: 32
      m_Height: 27
      m_HorizontalBearingX: -16
      m_HorizontalBearingY: 13.5
      m_HorizontalAdvance: 32
    m_GlyphRect:
      m_X: 197
      m_Y: 0
      m_Width: 32
      m_Height: 27
    m_Scale: 1
    m_AtlasIndex: 0
    sprite: {fileID: -3073591957586344262, guid: b4b7656a1d31ab744a16d3135816a253,
      type: 3}
  - m_Index: 7
    m_Metrics:
      m_Width: 32
      m_Height: 27
      m_HorizontalBearingX: -16
      m_HorizontalBearingY: 13.5
      m_HorizontalAdvance: 32
    m_GlyphRect:
      m_X: 229
      m_Y: 0
      m_Width: 32
      m_Height: 27
    m_Scale: 1
    m_AtlasIndex: 0
    sprite: {fileID: 9082396420041000811, guid: b4b7656a1d31ab744a16d3135816a253,
      type: 3}
  - m_Index: 8
    m_Metrics:
      m_Width: 32
      m_Height: 27
      m_HorizontalBearingX: -16
      m_HorizontalBearingY: 13.5
      m_HorizontalAdvance: 32
    m_GlyphRect:
      m_X: 261
      m_Y: 0
      m_Width: 32
      m_Height: 27
    m_Scale: 1
    m_AtlasIndex: 0
    sprite: {fileID: -6552525923041310945, guid: b4b7656a1d31ab744a16d3135816a253,
      type: 3}
  - m_Index: 9
    m_Metrics:
      m_Width: 32
      m_Height: 27
      m_HorizontalBearingX: -16
      m_HorizontalBearingY: 13.5
      m_HorizontalAdvance: 32
    m_GlyphRect:
      m_X: 293
      m_Y: 0
      m_Width: 32
      m_Height: 27
    m_Scale: 1
    m_AtlasIndex: 0
    sprite: {fileID: 4154753345555493621, guid: b4b7656a1d31ab744a16d3135816a253,
      type: 3}
  - m_Index: 10
    m_Metrics:
      m_Width: 32
      m_Height: 27
      m_HorizontalBearingX: -16
      m_HorizontalBearingY: 13.5
      m_HorizontalAdvance: 32
    m_GlyphRect:
      m_X: 325
      m_Y: 0
      m_Width: 32
      m_Height: 27
    m_Scale: 1
    m_AtlasIndex: 0
    sprite: {fileID: -3306289990833471456, guid: b4b7656a1d31ab744a16d3135816a253,
      type: 3}
  - m_Index: 11
    m_Metrics:
      m_Width: 32
      m_Height: 27
      m_HorizontalBearingX: -16
      m_HorizontalBearingY: 13.5
      m_HorizontalAdvance: 32
    m_GlyphRect:
      m_X: 357
      m_Y: 0
      m_Width: 32
      m_Height: 27
    m_Scale: 1
    m_AtlasIndex: 0
    sprite: {fileID: -1533947876939373805, guid: b4b7656a1d31ab744a16d3135816a253,
      type: 3}
  spriteInfoList: []
  fallbackSpriteAssets: []
--- !u!21 &1252056285881531363
Material:
  serializedVersion: 6
  m_ObjectHideFlags: 1
  m_CorrespondingSourceObject: {fileID: 0}
  m_PrefabInstance: {fileID: 0}
  m_PrefabAsset: {fileID: 0}
  m_Name: TextMeshPro/Sprite
  m_Shader: {fileID: 4800000, guid: cf81c85f95fe47e1a27f6ae460cf182c, type: 3}
  m_ShaderKeywords: 
  m_LightmapFlags: 4
  m_EnableInstancingVariants: 0
  m_DoubleSidedGI: 0
  m_CustomRenderQueue: -1
  stringTagMap: {}
  disabledShaderPasses: []
  m_SavedProperties:
    serializedVersion: 3
    m_TexEnvs:
    - _MainTex:
        m_Texture: {fileID: 2800000, guid: b4b7656a1d31ab744a16d3135816a253, type: 3}
        m_Scale: {x: 1, y: 1}
        m_Offset: {x: 0, y: 0}
    m_Floats:
    - _ColorMask: 15
    - _Stencil: 0
    - _StencilComp: 8
    - _StencilOp: 0
    - _StencilReadMask: 255
    - _StencilWriteMask: 255
    - _UseUIAlphaClip: 0
    m_Colors:
    - _ClipRect: {r: -32767, g: -32767, b: 32767, a: 32767}
    - _Color: {r: 1, g: 1, b: 1, a: 1}
